Check results for Acantharea
…
# Read images
images <- plankton %>% select(transect, img_name, datetime, lat, lon, depth) %>% distinct()

Check for potential clusters of Acantharea

Where are high density of Acantharea?

First, to detect potential clusters, we need to count Acantharea per image. Then plot it for each transect.

# Count Acantharea per image
counts <- plankton %>% count(transect, img_name)
counts %>% arrange(desc(n))

# A tibble: 111,307 × 3
   transect         img_name                       n
   <chr>            <chr>                      <int>
 1 cross_current_02 2013-07-24_03-37-20_389060    76
 2 cross_current_02 2013-07-24_03-36-52_503210    75
 3 cross_current_02 2013-07-24_03-37-07_131810    75
 4 cross_current_02 2013-07-24_03-37-17_097625    74
 5 cross_current_02 2013-07-24_03-37-11_886105    72
 6 cross_current_02 2013-07-24_03-36-45_188910    69
 7 cross_current_02 2013-07-24_03-36-49_943205    69
 8 cross_current_02 2013-07-24_03-36-55_428930    69
 9 cross_current_02 2013-07-24_03-37-16_366195    68
10 cross_current_02 2013-07-24_03-37-18_926200    68
# ℹ 111,297 more rows
…
